^C:\USERS\LUC_S\DOCUMENTS\VISUAL STUDIO 2015\PROJECTS\TESTAPP\TESTAPP\DEBUG\STDAFX.OBJ|C:\USERS\LUC_S\DOCUMENTS\VISUAL STUDIO 2015\PROJECTS\TESTAPP\TESTAPP\DEBUG\TESTAPP.OBJ
C:\USERS\LUC_S\DOCUMENTS\VISUAL STUDIO 2015\PROJECTS\TESTAPP\DEBUG\TESTAPP.ILK
C:\USERS\LUC_S\DOCUMENTS\VISUAL STUDIO 2015\PROJECTS\TESTAPP\DEBUG\TESTAPP.EXE
C:\USERS\LUC_S\DOCUMENTS\VISUAL STUDIO 2015\PROJECTS\TESTAPP\DEBUG\TESTAPP.PDB
